{
    "profiles": [
        {
            "complex_modifications": {
                "rules": [
                    {
                        "description": "Change Command_LCtrl+ h/j/k/l to Arrows",
                        "enabled": false,
                        "manipulators": [
                            {
                                "from": {
                                    "key_code": "h",
                                    "modifiers": {
                                        "mandatory": ["command", "left_control"],
                                        "optional": ["any"]
                                    }
                                },
                                "to": [{ "key_code": "left_arrow" }],
                                "type": "basic"
                            },
                            {
                                "from": {
                                    "key_code": "j",
                                    "modifiers": {
                                        "mandatory": ["command", "left_control"],
                                        "optional": ["any"]
                                    }
                                },
                                "to": [{ "key_code": "down_arrow" }],
                                "type": "basic"
                            },
                            {
                                "from": {
                                    "key_code": "k",
                                    "modifiers": {
                                        "mandatory": ["command", "left_control"],
                                        "optional": ["any"]
                                    }
                                },
                                "to": [{ "key_code": "up_arrow" }],
                                "type": "basic"
                            },
                            {
                                "from": {
                                    "key_code": "l",
                                    "modifiers": {
                                        "mandatory": ["command", "left_control"],
                                        "optional": ["any"]
                                    }
                                },
                                "to": [{ "key_code": "right_arrow" }],
                                "type": "basic"
                            }
                        ]
                    },
                    {
                        "description": "Change caps_lock to control if pressed with other keys, to escape if pressed alone.",
                        "enabled": false,
                        "manipulators": [
                            {
                                "from": {
                                    "key_code": "caps_lock",
                                    "modifiers": { "optional": ["any"] }
                                },
                                "to": [{ "key_code": "left_control" }],
                                "to_if_alone": [{ "key_code": "escape" }],
                                "type": "basic"
                            }
                        ]
                    }
                ]
            },
            "devices": [
                {
                    "identifiers": {
                        "is_keyboard": true,
                        "product_id": 832,
                        "vendor_id": 1452
                    },
                    "simple_modifications": [
                        {
                            "from": { "key_code": "caps_lock" },
                            "to": [{ "key_code": "left_control" }]
                        },
                        {
                            "from": { "key_code": "left_control" },
                            "to": [{ "key_code": "caps_lock" }]
                        }
                    ]
                },
                {
                    "identifiers": {
                        "is_keyboard": true,
                        "product_id": 1957,
                        "vendor_id": 1118
                    },
                    "simple_modifications": [
                        {
                            "from": { "key_code": "caps_lock" },
                            "to": [{ "key_code": "left_control" }]
                        },
                        {
                            "from": { "key_code": "left_command" },
                            "to": [{ "key_code": "left_option" }]
                        },
                        {
                            "from": { "key_code": "left_control" },
                            "to": [{ "key_code": "caps_lock" }]
                        },
                        {
                            "from": { "key_code": "left_option" },
                            "to": [{ "key_code": "left_command" }]
                        },
                        {
                            "from": { "key_code": "right_command" },
                            "to": [{ "key_code": "right_option" }]
                        },
                        {
                            "from": { "key_code": "right_option" },
                            "to": [{ "key_code": "right_command" }]
                        }
                    ]
                },
                {
                    "disable_built_in_keyboard_if_exists": true,
                    "identifiers": {
                        "is_keyboard": true,
                        "product_id": 8800,
                        "vendor_id": 17498
                    }
                },
                {
                    "disable_built_in_keyboard_if_exists": true,
                    "identifiers": {
                        "is_keyboard": true,
                        "is_pointing_device": true,
                        "product_id": 8800,
                        "vendor_id": 17498
                    }
                },
                {
                    "identifiers": {
                        "is_keyboard": true,
                        "product_id": 835,
                        "vendor_id": 1452
                    },
                    "simple_modifications": [
                        {
                            "from": { "key_code": "caps_lock" },
                            "to": [{ "key_code": "left_control" }]
                        },
                        {
                            "from": { "key_code": "left_control" },
                            "to": [{ "key_code": "caps_lock" }]
                        }
                    ]
                }
            ],
            "name": "Default profile",
            "selected": true,
            "virtual_hid_keyboard": { "keyboard_type_v2": "ansi" }
        }
    ]
}